OBJECT_NAME,OBJECT_ID,EPOCH,MEAN_MOTION,ECCENTRICITY,INCLINATION,RA_OF_ASC_NODE,ARG_OF_PERICENTER,MEAN_ANOMALY,EPHEMERIS_TYPE,CLASSIFICATION_TYPE,NORAD_CAT_ID,ELEMENT_SET_NO,REV_AT_EPOCH,BSTAR,MEAN_MOTION_DOT,MEAN_MOTION_DDOT
GPS BIIR-2  (PRN 13),1997-035A,2023-05-25T09:18:22.058784,2.00564187,.006788,55.5689,142.3258,50.7688,309.8356,0,U,24876,999,18931,0,.61E-6,0
GPS BIIR-4  (PRN 20),2000-025A,2023-05-25T18:40:22.362240,2.00578273,.0041203,54.3462,64.7685,198.1348,169.3744,0,U,26360,999,16884,0,-.59E-6,0
GPS BIIR-8  (PRN 16),2003-005A,2023-05-26T00:33:40.547808,2.00571926,.0131653,55.2986,259.4425,44.5072,121.9325,0,U,27663,999,14887,0,-.33E-6,0
GPS BIIR-9  (PRN 21),2003-010A,2023-05-25T18:05:36.293856,2.00570414,.024869,55.1062,9.4683,316.2447,232.8891,0,U,27704,999,14767,0,-.1E-5,0
GPS BIIR-11 (PRN 19),2004-009A,2023-05-25T14:22:50.531808,2.00569971,.0092508,55.7712,320.5054,133.0578,243.9712,0,U,28190,999,14054,0,-.61E-6,0
GPS BIIR-13 (PRN 02),2004-045A,2023-05-25T08:56:42.492192,1.99884756,.0175519,55.4318,9.7667,286.3394,15.3974,0,U,28474,999,13598,0,-.101E-5,0
GPS BIIRM-1 (PRN 17),2005-038A,2023-05-25T14:11:11.969664,2.00553014,.0136979,55.8252,317.9541,279.2253,114.2319,0,U,28874,999,12940,0,-.58E-6,0
GPS BIIRM-2 (PRN 31),2006-042A,2023-05-25T16:22:42.627648,2.00499969,.0104493,54.6867,195.6860,29.2975,331.0824,0,U,29486,999,12195,0,.24E-6,0
GPS BIIRM-3 (PRN 12),2006-052A,2023-05-25T14:31:12.304992,2.00572082,.0085823,55.3165,258.4128,78.4006,282.5761,0,U,29601,999,12097,0,-.31E-6,0
GPS BIIRM-4 (PRN 15),2007-047A,2023-05-25T09:52:32.523456,2.00557179,.0146968,53.4279,126.3659,68.2903,293.2500,0,U,32260,999,11437,0,.47E-6,0
GPS BIIRM-5 (PRN 29),2007-062A,2023-05-26T00:35:59.627616,2.00553408,.0023941,55.9540,318.7435,141.3895,71.9377,0,U,32384,999,11314,0,-.57E-6,0
GPS BIIRM-6 (PRN 07),2008-012A,2023-05-24T07:54:11.224512,2.00554778,.0174916,54.4528,194.5948,234.6888,123.7371,0,U,32711,999,11129,0,.21E-6,0
GPS BIIRM-8 (PRN 05),2009-043A,2023-05-25T19:31:06.451104,2.00564044,.0057447,55.3487,71.7792,64.9193,302.0310,0,U,35752,999,10093,0,-.44E-6,0
GPS BIIF-1  (PRN 25),2010-022A,2023-05-25T15:44:31.818912,2.00556758,.010903,54.6111,253.6958,59.6407,310.3697,0,U,36585,999,9516,0,-.3E-6,0
GPS BIIF-2  (PRN 01),2011-036A,2023-05-25T08:18:36.819072,2.00567833,.0126595,56.7218,15.4194,54.7224,175.4428,0,U,37753,999,8683,0,-.101E-5,0
GPS BIIF-3  (PRN 24),2012-053A,2023-05-26T00:11:22.089120,2.00565748,.013692,53.5126,189.3338,50.5971,310.6776,0,U,38833,999,7790,0,.33E-6,0
GPS BIIF-4  (PRN 27),2013-023A,2023-05-23T20:57:55.627200,2.00564774,.0114269,55.4435,314.2596,41.3237,319.5245,0,U,39166,999,7341,0,-.63E-6,0
GPS BIIF-5  (PRN 30),2014-008A,2023-05-25T08:49:43.231872,2.00572737,.0066203,53.6007,194.9050,213.5975,146.0531,0,U,39533,999,6724,0,.22E-6,0
GPS BIIF-6  (PRN 06),2014-026A,2023-05-25T15:31:49.510848,2.00564691,.002935,56.6767,14.9306,314.0697,45.7358,0,U,39741,999,6610,0,-.1E-5,0
GPS BIIF-7  (PRN 09),2014-045A,2023-05-25T05:45:57.472992,2.00570804,.0021475,54.7836,133.1511,114.0005,246.2152,0,U,40105,999,6363,0,.53E-6,0
GPS BIIF-8  (PRN 03),2014-068A,2023-05-24T02:49:57.827424,2.00564966,.0046415,56.0909,74.5127,57.2351,303.1995,0,U,40294,999,6274,0,-.43E-6,0
GPS BIIF-9  (PRN 26),2015-013A,2023-05-25T17:53:53.828160,2.00560882,.0078026,53.5096,250.5040,25.1538,335.2504,0,U,40534,999,5939,0,-.3E-6,0
GPS BIIF-10 (PRN 08),2015-033A,2023-05-25T09:47:26.092896,2.00560680,.0084165,54.9328,312.8619,13.8304,346.3898,0,U,40730,999,5755,0,-.57E-6,0
GPS BIIF-11 (PRN 10),2015-062A,2023-05-24T23:08:01.046400,2.00562383,.0086509,56.0763,74.3279,221.9655,137.3621,0,U,41019,999,5538,0,-.4E-6,0
GPS BIIF-12 (PRN 32),2016-007A,2023-05-25T13:14:05.333568,2.00554875,.0071084,54.9911,133.8925,234.8426,124.4823,0,U,41328,999,5340,0,.58E-6,0
GPS BIII-1  (PRN 04),2018-109A,2023-05-26T10:39:39.015648,2.00564283,.0024258,55.1680,136.3505,194.9092,340.8367,0,U,43873,999,3260,0,.71E-6,0
GPS BIII-2  (PRN 18),2019-056A,2023-05-25T15:01:48.616896,2.00564375,.0032212,55.7985,15.4669,183.1966,22.7971,0,U,44506,999,2762,0,-.101E-5,0
GPS BIII-3  (PRN 23),2020-041A,2023-05-25T18:42:51.162048,2.00565852,.0031847,55.7979,72.7379,186.7878,73.2550,0,U,45854,999,2160,0,-.42E-6,0
GPS BIII-4  (PRN 14),2020-078A,2023-05-26T00:17:36.053376,2.00563000,.0032049,54.3623,256.1828,190.9914,212.5204,0,U,46826,999,1907,0,-.33E-6,0
GPS BIII-5  (PRN 11),2021-054A,2023-05-24T09:39:37.473120,2.00555454,.0009223,55.3130,17.3500,210.1430,292.1579,0,U,48859,999,1429,0,-.105E-5,0
GPS BIII-6  (PRN 28),2023-009A,2023-05-24T09:43:42.625344,2.00562483,.0004793,55.0921,192.4506,102.0328,86.4895,0,U,55268,999,278,0,.24E-6,0
