OBJECT_NAME,OBJECT_ID,EPOCH,MEAN_MOTION,ECCENTRICITY,INCLINATION,RA_OF_ASC_NODE,ARG_OF_PERICENTER,MEAN_ANOMALY,EPHEMERIS_TYPE,CLASSIFICATION_TYPE,NORAD_CAT_ID,ELEMENT_SET_NO,REV_AT_EPOCH,BSTAR,MEAN_MOTION_DOT,MEAN_MOTION_DDOT
GALAXY 25 (G-25),1997-026A,2023-06-04T16:07:43.595904,0.99038485,.0013173,4.5763,80.1023,357.5747,46.5186,0,U,24812,999,9523,0,-.198E-5,0
INTELSAT 5 (IS-5),1997-046A,2023-06-04T13:31:42.687264,1.00272938,.0002024,7.9832,58.5069,23.3033,179.9730,0,U,24916,999,9450,0,-.53E-6,0
GALAXY 11 (G-11),1999-071A,2023-06-04T15:44:07.760832,1.00271578,.000181,3.8977,83.7450,63.3902,248.6358,0,U,26038,999,8596,0,-.15E-5,0
INTELSAT 9 (IS-9),2000-043A,2023-06-04T04:05:46.981824,1.00270040,.0003014,7.9670,58.6954,16.3131,188.7890,0,U,26451,999,3302,0,-.277E-5,0
INTELSAT 1R (IS-1R),2000-072A,2023-06-04T14:14:42.791712,1.00271856,.0001112,5.3548,76.1525,81.3259,106.0667,0,U,26608,999,3020,0,-.127E-5,0
INTELSAT 10 (IS-10),2001-019A,2023-06-04T14:22:42.716064,1.00272470,.0004489,6.4167,70.2567,357.6270,218.3633,0,U,26766,999,3450,0,.45E-6,0
INTELSAT 901 (IS-901),2001-024A,2023-06-04T17:46:07.477248,1.00270670,.0001133,0.0157,16.4092,61.0620,54.5026,0,U,26824,999,8047,0,-.187E-5,0
INTELSAT 902 (IS-902),2001-039A,2023-06-04T12:30:00.486144,1.00270592,.0003418,3.2964,85.0501,9.5562,295.5045,0,U,26900,999,7957,0,-.268E-5,0
INTELSAT 904 (IS-904),2002-007A,2023-06-04T07:47:42.836640,1.00270076,.000324,4.1214,82.1195,349.4911,268.3124,0,U,27380,999,4064,0,-.2E-5,0
DIRECTV 5 (TEMPO 1),2002-023A,2023-06-04T11:36:42.594048,1.00270849,.0003531,2.0251,89.0154,344.3574,243.3578,0,U,27426,999,7700,0,-.41E-6,0
INTELSAT 905 (IS-905),2002-027A,2023-06-04T05:44:22.228224,1.00271374,.0002897,3.9446,82.8197,347.3382,243.8739,0,U,27438,999,4024,0,-.17E-5,0
GALAXY 3C (G-3C),2002-030A,2023-06-04T14:00:18.217152,1.00271225,.0000881,0.8585,90.7555,71.5609,205.6875,0,U,27445,999,7683,0,-.137E-5,0
INTELSAT 906 (IS-906),2002-041A,2023-06-04T13:02:46.086144,1.00272604,.0004483,2.9677,86.3993,357.1496,68.9987,0,U,27513,999,7591,0,.28E-6,0
GALAXY 12 (G-12),2003-013B,2023-06-04T11:44:42.725760,1.00200869,.0000881,4.1548,81.8130,315.2251,257.5059,0,U,27715,999,7388,0,.104E-5,0
GALAXY 23 (G-23),2003-034A,2023-06-04T16:26:42.950976,1.00270748,.000286,0.3295,95.0059,338.4046,305.1397,0,U,27854,999,7743,0,.28E-6,0
GALAXY 13 (HORIZONS-1),2003-044A,2023-06-04T16:26:42.950976,1.00271722,.0001785,0.0028,7.4029,63.5778,301.5307,0,U,27954,999,7204,0,.64E-6,0
INTELSAT 10-02,2004-022A,2023-06-04T10:25:42.530592,1.00270027,.0001244,0.0337,74.3325,15.7906,317.9495,0,U,28358,999,6942,0,.5E-7,0
XM-3 (RHYTHM),2005-008A,2023-06-04T12:19:58.001664,1.00267639,.0000401,0.0074,170.6900,207.1241,334.7487,0,U,28626,999,3150,0,-.189E-5,0
DIRECTV 8,2005-019A,2023-06-04T08:44:57.146784,1.00270663,.0003118,0.0307,76.1510,4.0745,184.5174,0,U,28659,999,6595,0,.18E-6,0
GALAXY 28 (G-28),2005-022A,2023-06-04T15:45:08.008416,1.00271369,.0001877,0.4333,91.6302,327.8394,340.6351,0,U,28702,999,6571,0,-.17E-5,0
GALAXY 14 (G-14),2005-030A,2023-06-04T12:53:43.850976,1.00272312,.0001711,2.1579,88.2900,344.4270,46.3274,0,U,28790,999,6519,0,.17E-5,0
GALAXY 15 (G-15),2005-041A,2023-06-04T11:20:42.954432,0.98938128,.001358,0.6492,83.7407,95.7225,312.0931,0,U,28884,999,6447,0,.87E-6,0
SPACEWAY 2,2005-046B,2023-06-04T12:04:31.683936,1.00271583,.0000308,2.7154,84.6999,168.9864,41.2365,0,U,28903,999,4022,0,.118E-5,0
GALAXY 16 (G-16),2006-023A,2023-06-04T08:21:18.965952,1.00271363,.0002917,0.0476,127.0826,306.5339,205.2339,0,U,29236,999,6185,0,-.11E-5,0
DIRECTV 9S,2006-043A,2023-06-04T12:15:19.353024,1.00270550,.0003117,0.1172,278.5043,159.9653,256.8549,0,U,29494,999,4026,0,-.97E-6,0
XM-4 (BLUES),2006-049A,2023-06-04T10:05:42.764640,1.00272980,.0001053,0.0472,135.8662,9.0986,220.1082,0,U,29520,999,4035,0,-.239E-5,0
GALAXY 17 (G-17),2007-016B,2023-06-04T12:19:58.001664,1.00270453,.0002337,0.1543,95.2868,8.0198,249.3918,0,U,31307,999,5868,0,-.19E-5,0
DIRECTV 10,2007-032A,2023-06-04T15:41:14.546976,1.00271331,.0000283,0.0070,246.9521,156.7299,341.6589,0,U,31862,999,5829,0,-.87E-6,0
SPACEWAY 3,2007-036A,2023-06-04T12:17:04.787808,1.00270975,.0000322,1.1210,89.5649,169.8115,82.6390,0,U,32018,999,3543,0,-.136E-5,0
INTELSAT 11 (IS-11),2007-044B,2023-06-04T07:55:42.709152,1.00270902,.0003537,0.6865,92.3105,351.9722,244.1565,0,U,32253,999,5737,0,-.252E-5,0
HORIZONS-2,2007-063B,2023-06-04T12:23:06.279360,1.00270869,.0002862,0.0151,324.0095,126.7677,273.9060,0,U,32388,999,5669,0,-.237E-5,0
DIRECTV 11,2008-013A,2023-06-04T11:00:38.227392,1.00271286,.0000317,0.0503,130.3506,21.4041,166.8562,0,U,32729,999,3447,0,-.109E-5,0
GALAXY 18 (G-18),2008-024A,2023-06-04T12:09:02.801088,1.00270237,.0003225,0.0171,334.2636,105.2876,232.3968,0,U,32951,999,3473,0,.42E-6,0
INTELSAT 25 (IS-25),2008-034A,2023-06-04T10:05:42.764640,1.00273262,.0003307,0.0172,359.1153,71.2383,302.1801,0,U,33153,999,5457,0,-.207E-5,0
GALAXY 19 (G-19),2008-045A,2023-06-04T15:42:59.980032,1.00271346,.0003388,0.0450,96.6670,346.1809,308.7383,0,U,33376,999,5372,0,-.124E-5,0
FM-5,2009-034A,2023-06-04T12:19:35.408928,1.00272098,.0000508,0.0192,297.4063,288.8508,125.2003,0,U,35493,999,3552,0,-.184E-5,0
INTELSAT 14 (IS-14),2009-064A,2023-06-04T07:55:42.709152,1.00270558,.0002707,0.0210,50.6214,25.1717,250.6554,0,U,36097,999,4948,0,-.257E-5,0
INTELSAT 15 (IS-15),2009-067A,2023-06-04T15:13:11.008416,1.00271107,.0002519,0.0140,349.6960,83.2798,133.2869,0,U,36106,999,3011,0,-.17E-5,0
DIRECTV 12,2009-075A,2023-06-04T15:41:22.076736,1.00267025,.0000802,0.0355,185.5621,193.3324,6.5501,0,U,36131,999,4927,0,-.87E-6,0
INTELSAT 16 (IS-16),2010-006A,2023-06-04T12:22:28.622784,1.00270657,.0002074,0.0121,346.7065,94.5288,280.8889,0,U,36397,999,4860,0,-.229E-5,0
XM-5,2010-053A,2023-06-04T10:41:08.658240,1.00269396,.0000891,0.0232,290.9420,305.2169,61.5660,0,U,37185,999,4632,0,-.7E-7,0
INTELSAT 17 (IS-17),2010-065B,2023-06-04T18:43:42.405024,1.00271453,.000238,0.0056,301.6351,135.9636,162.2735,0,U,37238,999,4580,0,.14E-6,0
INTELSAT NEW DAWN,2011-016A,2023-06-04T08:59:42.594720,1.00273725,.0000836,0.0120,19.0773,83.0825,318.1447,0,U,37392,999,4216,0,.172E-5,0
INTELSAT 18 (IS-18),2011-056A,2023-06-04T17:02:26.674944,1.00272283,.0001864,0.0098,344.4629,78.1927,265.8453,0,U,37834,999,4272,0,.68E-6,0
INTELSAT 22 (IS-22),2012-011A,2023-06-04T18:25:42.957120,1.00271221,.0002364,0.0129,87.7601,3.1232,150.5885,0,U,38098,999,4093,0,-.43E-6,0
INTELSAT 19 (IS-19),2012-030A,2023-06-04T14:39:52.511616,1.00270725,.0003215,0.0158,7.6408,66.5768,204.5449,0,U,38356,999,3932,0,-.41E-6,0
INTELSAT 20 (IS-20),2012-043A,2023-06-04T11:20:42.954432,1.00270910,.000142,0.0066,93.6304,98.3394,299.3563,0,U,38740,999,3963,0,-.8E-7,0
INTELSAT 21 (IS-21),2012-045A,2023-06-04T12:27:44.926272,1.00271350,.0002354,0.0236,51.5673,23.3609,306.7236,0,U,38749,999,3940,0,-.269E-5,0
INTELSAT 23 (IS-23),2012-057A,2023-06-04T17:38:50.676864,1.00269226,.0001419,0.0153,278.2094,139.0153,47.4060,0,U,38867,999,3899,0,-.269E-5,0
FM-6,2013-058A,2023-06-04T10:39:21.550752,1.00270352,.0000619,0.0048,1.3173,266.8996,28.0907,0,U,39360,999,3522,0,-.1E-7,0
INTELSAT 30 (IS-30),2014-062A,2023-06-04T06:54:42.984000,1.00270769,.000179,0.0173,323.4201,118.2061,179.4720,0,U,40271,999,3146,0,-.134E-5,0
DIRECTV 14,2014-078B,2023-06-04T13:59:02.905728,1.00270190,.0000276,0.0234,39.5908,86.1142,237.5865,0,U,40333,999,3113,0,-.11E-5,0
DIRECTV 15,2015-026A,2023-06-04T15:41:14.546976,1.00272376,.0000613,0.0479,102.2334,61.1537,221.8987,0,U,40663,999,2942,0,-.87E-6,0
SKY MEXICO-1,2015-026B,2023-06-04T12:21:43.437312,1.00270561,.0002289,0.0248,39.5101,43.5482,276.3100,0,U,40664,999,2933,0,-.218E-5,0
INTELSAT 34 (IS-34),2015-039A,2023-06-04T10:26:59.034336,1.00270953,.0000765,0.0111,322.9468,53.3089,337.6249,0,U,40874,999,2850,0,-.269E-5,0
INTELSAT 31 (IS-31),2016-035A,2023-06-04T11:05:23.623872,1.00269296,.000148,0.0203,269.1612,316.7403,98.0353,0,U,41581,999,2557,0,-.134E-5,0
INTELSAT 36 (IS-36),2016-053A,2023-06-04T11:20:42.954432,1.00270211,.0001815,0.0116,343.3633,20.0818,127.8841,0,U,41747,999,2483,0,-.8E-7,0
INTELSAT 33E (IS-33E),2016-053B,2023-06-04T13:10:42.896640,1.00273093,.0002365,0.0121,314.8441,159.5522,36.0217,0,U,41748,999,2513,0,.64E-6,0
INTELSAT 32E (IS-32E),2017-007B,2023-06-04T10:13:42.900672,1.00271736,.0000657,0.0174,353.9554,15.8207,353.0900,0,U,41945,999,2313,0,-.253E-5,0
INTELSAT 35E (IS-35E),2017-041A,2023-06-04T11:07:42.553344,1.00269472,.0001783,0.0177,319.4391,110.8894,314.7367,0,U,42818,999,2169,0,-.222E-5,0
INTELSAT 37E (IS-37E),2017-059A,2023-06-04T17:48:53.159616,1.00271688,.0002508,0.0181,329.5842,115.4645,57.0945,0,U,42950,999,2093,0,-.125E-5,0
AZERSPACE 2 (IS-38),2018-074A,2023-06-04T00:54:40.292640,1.00270580,.0001684,0.0172,334.0741,103.1013,233.8344,0,U,43632,999,1732,0,.154E-5,0
HORIZONS-3E,2018-074B,2023-06-04T04:56:44.461824,1.00271709,.0000771,0.0233,111.8147,180.4127,203.3250,0,U,43633,999,1723,0,-.14E-6,0
AT&T T-16,2019-034A,2023-06-03T15:36:42.718752,1.00271228,.000058,0.0157,295.3598,203.9309,245.8767,0,U,44333,999,1450,0,-.96E-6,0
INTELSAT 39 (IS-39),2019-049B,2023-06-03T20:17:42.660096,1.00270195,.0000143,0.0171,330.2758,121.3612,166.7759,0,U,44476,999,1401,0,.51E-6,0
GALAXY 30 (G-30),2020-056C,2023-06-04T16:56:51.704736,1.00271292,.0002399,0.0172,353.5078,86.4001,302.1813,0,U,46114,999,1028,0,.52E-6,0
GALAXY 33 (G-33),2022-128A,2023-06-04T11:44:42.725760,1.00271603,.0001998,0.0126,23.7801,53.8364,218.2285,0,U,54026,999,263,0,.95E-6,0
GALAXY 34 (G-34),2022-128B,2023-06-04T15:44:30.134976,1.00270690,.0001557,0.0187,358.6567,79.1535,282.2072,0,U,54027,999,266,0,.74E-6,0
GALAXY 31 (G-31),2022-153A,2023-06-04T12:09:40.457664,1.00270885,.0001493,0.0220,347.8370,301.8466,24.4135,0,U,54243,999,202,0,.3E-6,0
GALAXY 32 (G-32),2022-153B,2023-06-03T15:39:35.932608,1.00271477,.0002628,0.0180,9.3623,34.9749,351.4116,0,U,54244,999,201,0,-.155E-5,0
GALAXY 35 (G-35),2022-170A,2023-06-04T08:25:38.355168,1.00271712,.000051,0.0132,29.8218,10.8105,245.2111,0,U,54741,999,177,0,-.145E-5,0
GALAXY 36 (G-36),2022-170B,2023-06-04T07:35:14.414784,1.00270951,.0003639,0.0374,90.3319,358.5357,188.4459,0,U,54742,999,165,0,-.168E-5,0
